^E:\문서\연구\MESH SEG\MESHSEGBENCHMARK-1.0\MESHSEGBENCHMARK-1.0\SRC\GAPS\PKGS\R3GRAPHICS\DEBUG\R2TEXTURE.OBJ|E:\문서\연구\MESH SEG\MESHSEGBENCHMARK-1.0\MESHSEGBENCHMARK-1.0\SRC\GAPS\PKGS\R3GRAPHICS\DEBUG\R2VIEWPORT.OBJ|E:\문서\연구\MESH SEG\MESHSEGBENCHMARK-1.0\MESHSEGBENCHMARK-1.0\SRC\GAPS\PKGS\R3GRAPHICS\DEBUG\R3BRDF.OBJ|E:\문서\연구\MESH SEG\MESHSEGBENCHMARK-1.0\MESHSEGBENCHMARK-1.0\SRC\GAPS\PKGS\R3GRAPHICS\DEBUG\R3CAMERA.OBJ|E:\문서\연구\MESH SEG\MESHSEGBENCHMARK-1.0\MESHSEGBENCHMARK-1.0\SRC\GAPS\PKGS\R3GRAPHICS\DEBUG\R3DIRECTIONALLIGHT.OBJ|E:\문서\연구\MESH SEG\MESHSEGBENCHMARK-1.0\MESHSEGBENCHMARK-1.0\SRC\GAPS\PKGS\R3GRAPHICS\DEBUG\R3GRAPHICS.OBJ|E:\문서\연구\MESH SEG\MESHSEGBENCHMARK-1.0\MESHSEGBENCHMARK-1.0\SRC\GAPS\PKGS\R3GRAPHICS\DEBUG\R3IO.OBJ|E:\문서\연구\MESH SEG\MESHSEGBENCHMARK-1.0\MESHSEGBENCHMARK-1.0\SRC\GAPS\PKGS\R3GRAPHICS\DEBUG\R3LIGHT.OBJ|E:\문서\연구\MESH SEG\MESHSEGBENCHMARK-1.0\MESHSEGBENCHMARK-1.0\SRC\GAPS\PKGS\R3GRAPHICS\DEBUG\R3MATERIAL.OBJ|E:\문서\연구\MESH SEG\MESHSEGBENCHMARK-1.0\MESHSEGBENCHMARK-1.0\SRC\GAPS\PKGS\R3GRAPHICS\DEBUG\R3NODE.OBJ|E:\문서\연구\MESH SEG\MESHSEGBENCHMARK-1.0\MESHSEGBENCHMARK-1.0\SRC\GAPS\PKGS\R3GRAPHICS\DEBUG\R3POINTLIGHT.OBJ|E:\문서\연구\MESH SEG\MESHSEGBENCHMARK-1.0\MESHSEGBENCHMARK-1.0\SRC\GAPS\PKGS\R3GRAPHICS\DEBUG\R3SCENE.OBJ|E:\문서\연구\MESH SEG\MESHSEGBENCHMARK-1.0\MESHSEGBENCHMARK-1.0\SRC\GAPS\PKGS\R3GRAPHICS\DEBUG\R3SPOTLIGHT.OBJ|E:\문서\연구\MESH SEG\MESHSEGBENCHMARK-1.0\MESHSEGBENCHMARK-1.0\SRC\GAPS\PKGS\R3GRAPHICS\DEBUG\R3VIEWER.OBJ
/OUT:"..\..\lib\win32\R3Graphics.lib" /NOLOGO Debug\R2Texture.obj
Debug\R2Viewport.obj
Debug\R3Brdf.obj
Debug\R3Camera.obj
Debug\R3DirectionalLight.obj
Debug\R3Graphics.obj
Debug\R3Io.obj
Debug\R3Light.obj
Debug\R3Material.obj
Debug\R3Node.obj
Debug\R3PointLight.obj
Debug\R3Scene.obj
Debug\R3SpotLight.obj
Debug\R3Viewer.obj
